{
	"parent":"block/cube_bottom_top",
	"textures":{
		"side":"tardis:blocks/technology/airlock_bottom",
		"top":"tardis:blocks/technology/transduction_barrier_on",
		"bottom":"tardis:blocks/technology/tech_floor_plate"
	}
}