{
    "parent": "block/outer_stairs",
    "textures": {
        "bottom": "tardis:blocks/technology/tungsten_pattern",
        "top": "tardis:blocks/technology/tungsten_pattern",
        "side": "tardis:blocks/technology/tungsten_pattern"
    }
}
