{
	"credit": "Made with Blockbench",
	"textures": {
		"0": "tardis:blocks/wire_box",
		"1": "block/anvil",
		"3": "block/cyan_terracotta",
		"particle": "block/anvil"
	},
	"elements": [
		{
			"from": [0, 0, 11],
			"to": [1, 16, 16],
			"rotation": {"angle": 0, "axis": "y", "origin": [8, 8, 23]},
			"faces": {
				"north": {"uv": [15, 0, 16, 16], "texture": "#1"},
				"east": {"uv": [0, 0, 5, 16], "texture": "#1"},
				"south": {"uv": [0, 0, 1, 16], "texture": "#1"},
				"west": {"uv": [11, 0, 16, 16], "texture": "#1"},
				"up": {"uv": [0, 11, 1, 16], "texture": "#1"},
				"down": {"uv": [0, 0, 1, 5], "texture": "#1"}
			}
		},
		{
			"from": [15, 0, 11],
			"to": [16, 16, 16],
			"rotation": {"angle": 0, "axis": "y", "origin": [23, 8, 23]},
			"faces": {
				"north": {"uv": [0, 0, 1, 16], "texture": "#1"},
				"east": {"uv": [0, 0, 5, 16], "texture": "#1"},
				"south": {"uv": [15, 0, 16, 16], "texture": "#1"},
				"west": {"uv": [11, 0, 16, 16], "texture": "#1"},
				"up": {"uv": [15, 11, 16, 16], "texture": "#1"},
				"down": {"uv": [15, 0, 16, 5], "texture": "#1"}
			}
		},
		{
			"from": [1, 15, 11],
			"to": [15, 16, 16],
			"rotation": {"angle": 0, "axis": "y", "origin": [22, 8, 23]},
			"faces": {
				"north": {"uv": [1, 0, 15, 1], "texture": "#1"},
				"east": {"uv": [0, 0, 5, 1], "texture": "#1"},
				"south": {"uv": [1, 0, 15, 1], "texture": "#1"},
				"west": {"uv": [11, 0, 16, 1], "texture": "#1"},
				"up": {"uv": [1, 11, 15, 16], "texture": "#1"},
				"down": {"uv": [1, 0, 15, 5], "texture": "#1"}
			}
		},
		{
			"from": [1, 0, 11],
			"to": [15, 1, 16],
			"rotation": {"angle": 0, "axis": "y", "origin": [22, -7, 23]},
			"faces": {
				"north": {"uv": [1, 15, 15, 16], "texture": "#1"},
				"east": {"uv": [0, 15, 5, 16], "texture": "#1"},
				"south": {"uv": [1, 15, 15, 16], "texture": "#1"},
				"west": {"uv": [11, 15, 16, 16], "texture": "#1"},
				"up": {"uv": [1, 11, 15, 16], "texture": "#1"},
				"down": {"uv": [1, 0, 15, 5], "texture": "#1"}
			}
		},
		{
			"from": [1, 1, 15],
			"to": [15, 15, 16],
			"rotation": {"angle": 0, "axis": "y", "origin": [22, -6, 23]},
			"faces": {
				"north": {"uv": [1, 1, 15, 15], "texture": "#1"},
				"east": {"uv": [0, 1, 1, 15], "texture": "#1"},
				"south": {"uv": [1, 1, 15, 15], "texture": "#1"},
				"west": {"uv": [15, 1, 16, 15], "texture": "#1"},
				"up": {"uv": [1, 15, 15, 16], "texture": "#1"},
				"down": {"uv": [1, 0, 15, 1], "texture": "#1"}
			}
		},
		{
			"from": [10, 1, 12],
			"to": [15, 5, 15],
			"rotation": {"angle": 0, "axis": "y", "origin": [22, -6, 22]},
			"faces": {
				"north": {"uv": [0, 12, 5, 16], "texture": "#0"},
				"east": {"uv": [0, 0, 1, 1], "texture": "#1"},
				"south": {"uv": [0, 0, 1, 1], "texture": "#1"},
				"west": {"uv": [0, 0, 3, 4], "texture": "#1"},
				"up": {"uv": [0, 0, 5, 3], "texture": "#1"},
				"down": {"uv": [0, 0, 1, 1], "texture": "#1"}
			}
		},
		{
			"from": [1, 1, 12],
			"to": [6, 15, 15],
			"rotation": {"angle": 0, "axis": "y", "origin": [13, -6, 22]},
			"faces": {
				"north": {"uv": [10, 1, 15, 15], "texture": "#3"},
				"east": {"uv": [1, 1, 4, 15], "texture": "#3"},
				"south": {"uv": [1, 1, 6, 15], "texture": "#3"},
				"west": {"uv": [12, 1, 15, 15], "texture": "#3"},
				"up": {"uv": [1, 12, 6, 15], "texture": "#3"},
				"down": {"uv": [1, 1, 6, 4], "texture": "#3"}
			}
		},
		{
			"from": [14, 1, 12.5],
			"to": [15, 15, 15],
			"rotation": {"angle": 0, "axis": "y", "origin": [22, -6, 22]},
			"faces": {
				"north": {"uv": [1, 1, 2, 15], "texture": "#3"},
				"east": {"uv": [1, 1, 3.5, 15], "texture": "#3"},
				"south": {"uv": [14, 1, 15, 15], "texture": "#3"},
				"west": {"uv": [12.5, 1, 15, 15], "texture": "#3"},
				"up": {"uv": [14, 12.5, 15, 15], "texture": "#3"},
				"down": {"uv": [14, 1, 15, 3.5], "texture": "#3"}
			}
		},
		{
			"from": [6, 13, 13],
			"to": [14, 14, 14],
			"rotation": {"angle": 0, "axis": "y", "origin": [18, -7, 23]},
			"faces": {
				"north": {"uv": [1, 0, 9, 1], "texture": "#0"},
				"east": {"uv": [2, 2, 3, 3], "texture": "#0"},
				"south": {"uv": [6, 2, 14, 3], "texture": "#0"},
				"west": {"uv": [13, 2, 14, 3], "texture": "#0"},
				"up": {"uv": [0, 0, 8, 1], "texture": "#0"},
				"down": {"uv": [0, 0, 8, 1], "texture": "#0"}
			}
		},
		{
			"from": [6, 11, 13],
			"to": [14, 12, 14],
			"rotation": {"angle": 0, "axis": "y", "origin": [18, -9, 23]},
			"faces": {
				"north": {"uv": [0, 1, 8, 2], "texture": "#0"},
				"east": {"uv": [2, 4, 3, 5], "texture": "#0"},
				"south": {"uv": [6, 4, 14, 5], "texture": "#0"},
				"west": {"uv": [13, 4, 14, 5], "texture": "#0"},
				"up": {"uv": [1, 1, 9, 2], "texture": "#0"},
				"down": {"uv": [1, 1, 9, 2], "texture": "#0"}
			}
		},
		{
			"from": [6, 9, 13],
			"to": [14, 10, 14],
			"rotation": {"angle": 0, "axis": "y", "origin": [18, -11, 23]},
			"faces": {
				"north": {"uv": [1, 2, 9, 3], "texture": "#0"},
				"east": {"uv": [2, 6, 3, 7], "texture": "#0"},
				"south": {"uv": [6, 6, 14, 7], "texture": "#0"},
				"west": {"uv": [13, 6, 14, 7], "texture": "#0"},
				"up": {"uv": [0, 2, 8, 3], "texture": "#0"},
				"down": {"uv": [0, 2, 8, 3], "texture": "#0"}
			}
		},
		{
			"from": [6, 7, 13],
			"to": [14, 8, 14],
			"rotation": {"angle": 0, "axis": "y", "origin": [18, -13, 23]},
			"faces": {
				"north": {"uv": [0, 3, 8, 4], "texture": "#0"},
				"east": {"uv": [2, 8, 3, 9], "texture": "#0"},
				"south": {"uv": [6, 8, 14, 9], "texture": "#0"},
				"west": {"uv": [13, 8, 14, 9], "texture": "#0"},
				"up": {"uv": [1, 3, 9, 4], "texture": "#0"},
				"down": {"uv": [1, 3, 9, 4], "texture": "#0"}
			}
		}
	],
	"display": {
		"thirdperson_righthand": {
			"rotation": [75, 45, 0],
			"translation": [0, 2.5, 0],
			"scale": [0.375, 0.375, 0.375]
		},
		"thirdperson_lefthand": {
			"rotation": [75, 45, 0],
			"translation": [0, 2.5, 0],
			"scale": [0.375, 0.375, 0.375]
		},
		"firstperson_righthand": {
			"rotation": [0, 110, 0],
			"translation": [0.75, 0, 0],
			"scale": [0.4, 0.4, 0.4]
		},
		"firstperson_lefthand": {
			"rotation": [0, 110, 0],
			"translation": [0.75, 0, 0],
			"scale": [0.4, 0.4, 0.4]
		},
		"ground": {
			"translation": [0, 3, 0],
			"scale": [0.25, 0.25, 0.25]
		},
		"gui": {
			"rotation": [30, 135, 0],
			"translation": [-2.25, -1.5, 0],
			"scale": [0.625, 0.625, 0.625]
		},
		"head": {
			"rotation": [90, 0, 0],
			"translation": [0, 12, 0],
			"scale": [0.7, 0.7, 0.7]
		},
		"fixed": {
			"translation": [0, 0, -3.75],
			"scale": [0.5, 0.5, 0.5]
		}
	}
}