{
  "display_name": "Timeship Emotion",
  "pages": [
    "tardis:maintenance/engine/engine_cover",
    "tardis:maintenance/engine/engine_intro",
    "tardis:maintenance/engine/engine_panels",
    "tardis:maintenance/engine/component_installation",
    "tardis:maintenance/engine/component_activation"
  ]
}