{
	"credit": "Made with Blockbench",
	"textures": {
		"0": "tardis:blocks/books",
		"particle": "tardis:blocks/books"
	},
	"elements": [
		{
			"from": [1.25, 0.375, 12.625],
			"to": [12.5, 1.125, 13],
			"rotation": {"angle": 0, "axis": "y", "origin": [8, 6, 7.75]},
			"faces": {
				"north": {"uv": [12, 4, 16, 6], "rotation": 270, "texture": "#0"},
				"east": {"uv": [12, 4, 16, 6], "rotation": 270, "texture": "#0"},
				"south": {"uv": [7, 0, 8, 7], "rotation": 270, "texture": "#0"},
				"west": {"uv": [12, 4, 16, 6], "rotation": 270, "texture": "#0"},
				"up": {"uv": [7, 0, 8, 1], "texture": "#0"},
				"down": {"uv": [7, 0, 8, 0.5], "texture": "#0"}
			}
		},
		{
			"from": [1.25, 1.125, 5.5],
			"to": [12.5, 1.5, 13],
			"rotation": {"angle": 0, "axis": "y", "origin": [8, 6, 7.75]},
			"faces": {
				"north": {"uv": [12, 4, 16, 6], "rotation": 270, "texture": "#0"},
				"east": {"uv": [12, 4, 16, 6], "rotation": 270, "texture": "#0"},
				"south": {"uv": [7, 0, 8, 7], "rotation": 270, "texture": "#0"},
				"west": {"uv": [12, 4, 16, 6], "rotation": 270, "texture": "#0"},
				"up": {"uv": [12, 4, 16, 6], "rotation": 270, "texture": "#0"},
				"down": {"uv": [12, 4, 16, 9], "rotation": 270, "texture": "#0"}
			}
		},
		{
			"from": [1.25, 0, 5.5],
			"to": [12.5, 0.375, 13],
			"rotation": {"angle": 0, "axis": "y", "origin": [8, 6, 7.75]},
			"faces": {
				"north": {"uv": [12, 4, 12.5, 6], "rotation": 270, "texture": "#0"},
				"east": {"uv": [12, 4, 12.5, 6], "rotation": 270, "texture": "#0"},
				"south": {"uv": [7, 0, 8, 7], "rotation": 270, "texture": "#0"},
				"west": {"uv": [12, 4, 12.5, 6], "rotation": 270, "texture": "#0"},
				"up": {"uv": [12, 4, 12.5, 6], "rotation": 270, "texture": "#0"},
				"down": {"uv": [12, 4, 12.5, 6], "rotation": 270, "texture": "#0"}
			}
		},
		{
			"from": [1.625, 0.375, 5.875],
			"to": [12.125, 1.125, 12.625],
			"rotation": {"angle": 0, "axis": "y", "origin": [8, 6, 7.75]},
			"faces": {
				"north": {"uv": [5, 0, 7, 7], "rotation": 270, "texture": "#0"},
				"east": {"uv": [5, 0, 7, 1], "rotation": 270, "texture": "#0"},
				"south": {"uv": [5, 1, 7, 2], "texture": "#0"},
				"west": {"uv": [5, 1, 7, 2], "rotation": 270, "texture": "#0"},
				"up": {"uv": [5, 5, 7, 6], "texture": "#0"},
				"down": {"uv": [5, 5, 7, 6], "texture": "#0"}
			}
		},
		{
			"from": [2, 3.75, 12.125],
			"to": [13.25, 4.5, 12.5],
			"faces": {
				"north": {"uv": [9, 10, 11, 12], "rotation": 270, "texture": "#0"},
				"east": {"uv": [9, 10, 11, 12], "rotation": 270, "texture": "#0"},
				"south": {"uv": [9, 7, 10, 14], "rotation": 270, "texture": "#0"},
				"west": {"uv": [9, 10, 11, 12], "rotation": 270, "texture": "#0"},
				"up": {"uv": [9, 9, 11, 9.5], "texture": "#0"},
				"down": {"uv": [9, 9, 11, 9.5], "texture": "#0"}
			}
		},
		{
			"from": [2, 4.5, 5],
			"to": [13.25, 4.875, 12.5],
			"faces": {
				"north": {"uv": [9, 10, 11, 12], "rotation": 270, "texture": "#0"},
				"east": {"uv": [9, 10, 11, 12], "rotation": 270, "texture": "#0"},
				"south": {"uv": [9, 7, 10, 14], "rotation": 270, "texture": "#0"},
				"west": {"uv": [9, 10, 11, 12], "rotation": 270, "texture": "#0"},
				"up": {"uv": [9, 10, 11, 12], "rotation": 270, "texture": "#0"},
				"down": {"uv": [9, 10, 11, 12], "rotation": 270, "texture": "#0"}
			}
		},
		{
			"from": [2, 3.375, 5],
			"to": [13.25, 3.75, 12.5],
			"faces": {
				"north": {"uv": [9, 10, 11, 12], "rotation": 270, "texture": "#0"},
				"east": {"uv": [9, 10, 11, 12], "rotation": 270, "texture": "#0"},
				"south": {"uv": [9, 7, 10, 14], "rotation": 270, "texture": "#0"},
				"west": {"uv": [9, 10, 11, 12], "rotation": 270, "texture": "#0"},
				"up": {"uv": [9, 10, 11, 12], "rotation": 270, "texture": "#0"},
				"down": {"uv": [9, 10, 11, 12], "rotation": 270, "texture": "#0"}
			}
		},
		{
			"from": [2.375, 3.75, 5.375],
			"to": [12.875, 4.5, 12.125],
			"faces": {
				"north": {"uv": [5, 0, 7, 7], "rotation": 270, "texture": "#0"},
				"east": {"uv": [5, 0, 7, 1], "rotation": 270, "texture": "#0"},
				"south": {"uv": [5, 1, 7, 2], "texture": "#0"},
				"west": {"uv": [5, 1, 7, 2], "rotation": 270, "texture": "#0"},
				"up": {"uv": [5, 3, 7, 4], "texture": "#0"},
				"down": {"uv": [5, 3, 7, 4], "texture": "#0"}
			}
		},
		{
			"from": [1.25, 1.875, 12.625],
			"to": [12.5, 3, 13],
			"rotation": {"angle": 0, "axis": "y", "origin": [8, 6, 7.75]},
			"faces": {
				"north": {"uv": [5, 11, 9, 16], "rotation": 270, "texture": "#0"},
				"east": {"uv": [5, 11, 9, 16], "rotation": 270, "texture": "#0"},
				"south": {"uv": [0, 7, 1, 14], "rotation": 270, "texture": "#0"},
				"west": {"uv": [5, 11, 9, 16], "rotation": 270, "texture": "#0"},
				"up": {"uv": [1, 10, 7, 11.5], "texture": "#0"},
				"down": {"uv": [1, 10, 7, 11.5], "texture": "#0"}
			}
		},
		{
			"from": [1.25, 3, 5.5],
			"to": [12.5, 3.375, 13],
			"rotation": {"angle": 0, "axis": "y", "origin": [8, 6, 7.75]},
			"faces": {
				"north": {"uv": [5, 11, 9, 16], "rotation": 270, "texture": "#0"},
				"east": {"uv": [5, 11, 9, 16], "rotation": 270, "texture": "#0"},
				"south": {"uv": [0, 7, 1, 14], "rotation": 270, "texture": "#0"},
				"west": {"uv": [5, 11, 9, 16], "rotation": 270, "texture": "#0"},
				"up": {"uv": [5, 11, 9, 16], "texture": "#0"},
				"down": {"uv": [5, 11, 9, 16], "rotation": 180, "texture": "#0"}
			}
		},
		{
			"from": [1.25, 1.5, 5.5],
			"to": [12.5, 1.875, 13],
			"rotation": {"angle": 0, "axis": "y", "origin": [8, 6, 7.75]},
			"faces": {
				"north": {"uv": [5, 11, 9, 16], "rotation": 270, "texture": "#0"},
				"east": {"uv": [5, 11, 9, 16], "rotation": 270, "texture": "#0"},
				"south": {"uv": [0, 7, 1, 14], "rotation": 270, "texture": "#0"},
				"west": {"uv": [5, 11, 9, 16], "rotation": 270, "texture": "#0"},
				"up": {"uv": [5, 11, 9, 16], "texture": "#0"},
				"down": {"uv": [5, 11, 9, 16], "rotation": 180, "texture": "#0"}
			}
		},
		{
			"from": [1.625, 1.875, 5.875],
			"to": [12.125, 3, 12.625],
			"rotation": {"angle": 0, "axis": "y", "origin": [8, 6, 7.75]},
			"faces": {
				"north": {"uv": [5, 0, 7, 7], "rotation": 270, "texture": "#0"},
				"east": {"uv": [5, 0, 7, 1], "rotation": 270, "texture": "#0"},
				"south": {"uv": [5, 1, 7, 2], "texture": "#0"},
				"west": {"uv": [5, 1, 7, 2], "rotation": 270, "texture": "#0"},
				"up": {"uv": [5, 3, 7, 4], "texture": "#0"},
				"down": {"uv": [5, 3, 7, 4], "texture": "#0"}
			}
		}
	],
	"display": {
		"thirdperson_righthand": {
			"rotation": [66, -18, 0],
			"translation": [0, 0, 2.5],
			"scale": [0.5, 0.5, 0.5]
		},
		"thirdperson_lefthand": {
			"rotation": [66, -18, 0],
			"translation": [0, 0, 2.5],
			"scale": [0.5, 0.5, 0.5]
		},
		"firstperson_righthand": {
			"rotation": [0, -90, 0],
			"translation": [0, 5, 1.75],
			"scale": [0.5, 0.5, 0.5]
		},
		"firstperson_lefthand": {
			"rotation": [0, -90, 0],
			"translation": [0, 5.25, 1.75],
			"scale": [0.5, 0.5, 0.5]
		},
		"ground": {
			"translation": [0, 0.5, 0],
			"scale": [0.5, 0.5, 0.5]
		},
		"gui": {
			"rotation": [45, 45, 0],
			"translation": [0, 3.75, 0],
			"scale": [0.8, 0.8, 0.8]
		},
		"fixed": {
			"translation": [0, 5.5, -3.25]
		}
	},
	"groups": [
		{
			"name": "group",
			"origin": [8, 8, 8],
			"children": [0, 1, 2, 3]
		},
		{
			"name": "group3",
			"origin": [8, 8, 8],
			"children": [4, 5, 6, 7]
		},
		{
			"name": "group2",
			"origin": [8, 8, 8],
			"children": [8, 9, 10, 11]
		}
	]
}