{
  "inventory":[
  
  ],
  "overrides": [
    {
      "predicate": {
        "sonic_type": 0
      },
      "model": "tardis:item/sonic_parts/mk1_activator"
    },
    {
      "predicate": {
        "sonic_type": 1
      },
      "model": "tardis:item/sonic_parts/mk2_activator"
    },
    {
      "predicate": {
        "sonic_type": 2
      },
      "model": "tardis:item/sonic_parts/mk3_activator"
    },
    {
      "predicate": {
        "sonic_type": 3
      },
      "model": "tardis:item/sonic_parts/mk4_activator"
    },
    {
      "predicate": {
        "sonic_type": 4
      },
      "model": "tardis:item/sonic_parts/mk5_activator"
    },
    {
      "predicate": {
        "sonic_type": 5
      },
      "model": "tardis:item/sonic_parts/mk6_activator"
    },
    {
      "predicate": {
        "sonic_type": 6
      },
      "model": "tardis:item/sonic_parts/mk7_activator"
    }
  ]
}