{
    "parent": "block/slab",
    "textures": {
        "bottom": "tardis:blocks/yellow_crystal",
        "top": "tardis:blocks/yellow_crystal",
        "side": "tardis:blocks/yellow_crystal"
    }
}
