{
	"type": "tardis:quantiscope",
	"repair":false,
	"ingredients":[
		{"item":"minecraft:ender_pearl"},
		{"item":"minecraft:glass"},
		{"item":"minecraft:iron_ingot"},
		{"item":"tardis:xion_crystal"}
	],
	"result":{
		"item":"tardis:subsystem/dematerialisation_circuit"
	}
}