{
  "required": true,
  "package": "net.tardis.mixin",
  "compatibilityLevel": "JAVA_8",
  "refmap": "tardis.refmap.json",
  "mixins": [
    "LegacySingleJigsawMixin",
    "ServerWorldMixin"
  ],
  "client": [
    "GameRendererMixin",
    "LightTextureMixin"
  ],
  "minVersion": "0.8"
}