{
  "add_attunement_tags": false,
  "attunement_ticks": 120,
  "input": {
    "item": "minecraft:porkchop"
  },
  "result": {
    "item": "minecraft:cooked_porkchop"
  },
  "type": "tardis:attunable"
}