{
  "type":"normal",
  "text":"When installing components into an engine, pilots must carefully complete the correct wiring sequence shown in a user interface. This involves matching the component's node on the left side of the interface to its corresponding node on the right side. Once complete, the component will be installed. If a node was incorrectly wired, the component is rejected, and the pilot can receive a small electrical shock."
}