{
  "type": "normal",
  "text": "Time Ram. This is a multi-stage event that occurs when two Timeships that are in flight cross paths with each other. The Time Ram has two subevents sent to different pilots. Both events need to be successfully completed to avoid consequences. These include the Time Ram Instigate and Receive events."
}