{
  "type": "normal",
  "text": "Telepathic Circuits This allows your time-ship to locate nearby biomes within a 500 block radius. It is also a direct interface between the pilot and the timeship, allowing both to read each other\u0027s emotions."
}